o001aa111|Camry|чёрный|75000|2500000
o102ab777|Camry|белый|123000|2000000
o456ab702|Polo|серый|54550|789000
o133tv777|Vesta|красный|95000|810000
w102ab116|Subaru|синий|150000|715000
p722ab456|Civic|серый|230000|703000
p189ab456|Passat|белый|97000|890000
t102vm102|Aveo|чёрный|83000|750000
p722ab477|Cruze|синий|0|770000
r722ab716|Priora|желтый|210000|350000
r116ab716|Kalina|красный|2589000|300000
y117wc116|Sportage|желтый|15000|2300000
l118vc233|Duster|чёрный|350000|1170000
y117wc116|Camaro|жёлтый|45000|4500000
x118xx799|Octavia|белый|0|1400000
o404оо666|Camry|чёрный|32000|4500000
